{
    "prepare_queue": {
        "installed": [],
        "uninstalled": []
    },
    "config_munge": {
        "files": {}
    },
    "installed_plugins": {
        "cordova-plugin-camera": {
            "PACKAGE_NAME": "io.cordova.myappf725e9"
        },
        "cordova-plugin-datetime-picker": {
            "PACKAGE_NAME": "io.cordova.myappf725e9"
        },
        "cordova-plugin-device": {
            "PACKAGE_NAME": "io.cordova.myappf725e9"
        },
        "cordova-plugin-file": {
            "PACKAGE_NAME": "io.cordova.myappf725e9"
        },
        "cordova-plugin-file-transfer": {
            "PACKAGE_NAME": "io.cordova.myappf725e9"
        },
        "cordova-plugin-geolocation": {
            "PACKAGE_NAME": "io.cordova.myappf725e9"
        },
        "cordova-plugin-screen-orientation": {
            "PACKAGE_NAME": "io.cordova.myappf725e9"
        },
        "cordova-plugin-spinner-dialog": {
            "PACKAGE_NAME": "io.cordova.myappf725e9"
        },
        "cordova-plugin-whitelist": {
            "PACKAGE_NAME": "io.cordova.myappf725e9"
        },
        "cordova-plugin-x-toast": {
            "PACKAGE_NAME": "io.cordova.myappf725e9"
        },
        "de.appplant.cordova.plugin.printer": {
            "PACKAGE_NAME": "io.cordova.myappf725e9"
        },
        "pushbots-cordova-plugin": {
            "PACKAGE_NAME": "io.cordova.myappf725e9"
        }
    },
    "dependent_plugins": {
        "cordova-plugin-android-support-v4": {
            "PACKAGE_NAME": "io.cordova.myappf725e9"
        }
    }
}